EESchema Schematic File Version 4
EELAYER 30 0
EELAYER END
$Descr A 11000 8500
encoding utf-8
Sheet 1 1
Title "65C02 Delight"
Date "2021-04-25"
Rev "1"
Comp ""
Comment1 "Originally based on Ben Eater's design"
Comment2 "LCD, buttons, and FTDI omitted"
Comment3 "Breadboard Build with working serial interface"
Comment4 ""
$EndDescr
$Comp
L wraithan-symbols:65C22S U8
U 1 1 60D13962
P 4550 5750
F 0 "U8" H 4550 6600 50  0000 C CNN
F 1 "65C22S" V 4550 5750 50  0000 C CNN
F 2 "Package_DIP:DIP-40_W15.24mm_Socket" H 3850 7700 50  0001 C CNN
F 3 "https://www.westerndesigncenter.com/wdc/documentation/w65c22s.pdf" H 3850 7700 50  0001 C CNN
	1    4550 5750
	1    0    0    -1  
$EndComp
Wire Wire Line
	3700 7000 4100 7000
Wire Wire Line
	3700 6900 4100 6900
Wire Wire Line
	3700 6800 4100 6800
Wire Wire Line
	3700 6700 4100 6700
Entry Wire Line
	3700 5300 3800 5400
Entry Wire Line
	3700 5200 3800 5300
Entry Wire Line
	3700 5100 3800 5200
Entry Wire Line
	3700 5000 3800 5100
Entry Wire Line
	3700 4900 3800 5000
Entry Wire Line
	3700 4800 3800 4900
Entry Wire Line
	3700 4700 3800 4800
Entry Wire Line
	3700 4600 3800 4700
Text Label 3800 5400 0    50   ~ 0
CPU_D7
Text Label 3800 5300 0    50   ~ 0
CPU_D6
Text Label 3800 5200 0    50   ~ 0
CPU_D5
Text Label 3800 5100 0    50   ~ 0
CPU_D4
Text Label 3800 5000 0    50   ~ 0
CPU_D3
Text Label 3800 4900 0    50   ~ 0
CPU_D2
Text Label 3800 4800 0    50   ~ 0
CPU_D1
Text Label 3800 4700 0    50   ~ 0
CPU_D0
Wire Wire Line
	4100 5400 3800 5400
Wire Wire Line
	3800 5300 4100 5300
Wire Wire Line
	4100 5200 3800 5200
Wire Wire Line
	3800 5100 4100 5100
Wire Wire Line
	4100 5000 3800 5000
Wire Wire Line
	3800 4900 4100 4900
Wire Wire Line
	4100 4800 3800 4800
Wire Wire Line
	3800 4700 4100 4700
Text Label 4100 6700 2    50   ~ 0
CPU_A0
Text Label 4100 6800 2    50   ~ 0
CPU_A1
Text Label 4100 6900 2    50   ~ 0
CPU_A2
Text Label 4100 7000 2    50   ~ 0
CPU_A3
Wire Wire Line
	3750 6200 4100 6200
$Comp
L power:+5V #PWR0117
U 1 1 60E970F6
P 4000 5600
F 0 "#PWR0117" H 4000 5450 50  0001 C CNN
F 1 "+5V" H 4015 5773 50  0000 C CNN
F 2 "" H 4000 5600 50  0001 C CNN
F 3 "" H 4000 5600 50  0001 C CNN
	1    4000 5600
	0    -1   -1   0   
$EndComp
$Comp
L power:GND #PWR0118
U 1 1 60E97A60
P 4050 5700
F 0 "#PWR0118" H 4050 5450 50  0001 C CNN
F 1 "GND" H 4055 5527 50  0000 C CNN
F 2 "" H 4050 5700 50  0001 C CNN
F 3 "" H 4050 5700 50  0001 C CNN
	1    4050 5700
	0    1    1    0   
$EndComp
Wire Wire Line
	4000 5600 4100 5600
Wire Wire Line
	4050 5700 4100 5700
Wire Wire Line
	3700 6300 4100 6300
Text Label 4100 6300 2    50   ~ 0
CPU_A13
NoConn ~ 5000 4700
NoConn ~ 5000 4800
NoConn ~ 5000 4900
NoConn ~ 5000 5000
NoConn ~ 5000 5100
NoConn ~ 5000 5200
NoConn ~ 5000 5300
NoConn ~ 5000 5400
NoConn ~ 5000 5500
NoConn ~ 5000 5600
NoConn ~ 5000 6100
NoConn ~ 5000 6200
NoConn ~ 5000 6300
NoConn ~ 5000 6400
NoConn ~ 5000 6500
NoConn ~ 5000 6600
NoConn ~ 5000 6700
NoConn ~ 5000 6800
NoConn ~ 5000 6900
NoConn ~ 5000 7000
Text GLabel 4000 6000 0    50   Input ~ 0
CPU_NMI
Wire Wire Line
	4100 6500 4000 6500
Text GLabel 4000 5900 0    50   Input ~ 0
CPU_RES
Wire Wire Line
	4000 5900 4100 5900
Wire Wire Line
	4000 6000 4100 6000
Text GLabel 4000 6400 0    50   Input ~ 0
IO_CS
Wire Wire Line
	4000 6400 4100 6400
Text GLabel 3700 4600 0    50   Input ~ 0
CPU_DATA
Wire Wire Line
	1200 1750 1550 1750
Connection ~ 1200 1750
Wire Wire Line
	1050 1050 1050 950 
Wire Wire Line
	1450 950  1450 1050
Wire Wire Line
	1250 950  1250 1050
Wire Wire Line
	1050 1350 1050 1750
Text GLabel 1000 1550 0    50   Input ~ 0
CPU_RDY
Text GLabel 1000 1750 0    50   Input ~ 0
CPU_RES
$Comp
L power:GND #PWR0110
U 1 1 60C4DE54
P 800 2000
F 0 "#PWR0110" H 800 1750 50  0001 C CNN
F 1 "GND" H 805 1827 50  0000 C CNN
F 2 "" H 800 2000 50  0001 C CNN
F 3 "" H 800 2000 50  0001 C CNN
	1    800  2000
	1    0    0    -1  
$EndComp
Text GLabel 2950 4250 0    50   Input ~ 0
CPU_ADDRESS
Text GLabel 2950 1350 0    50   Input ~ 0
CPU_DATA
Text GLabel 3750 6200 0    50   Input ~ 0
CLK_SW
Wire Wire Line
	6850 2500 6950 2500
Text GLabel 6950 2500 2    50   Input ~ 0
RAM_CS
Wire Wire Line
	3400 3400 4050 3400
Text GLabel 3400 3400 0    50   Input ~ 0
ROM_CS
Wire Wire Line
	3400 3300 3950 3300
Text GLabel 3400 3300 0    50   Input ~ 0
ROM_OE
Connection ~ 3500 3200
Wire Wire Line
	3400 3200 3500 3200
Text GLabel 3400 3200 0    50   Input ~ 0
ROM_WE
Wire Wire Line
	3500 3000 3500 3200
Wire Wire Line
	1200 1750 1200 2000
Wire Wire Line
	1450 1550 1450 1350
Wire Wire Line
	1250 1650 1250 1350
Wire Wire Line
	1450 950  1250 950 
$Comp
L Device:R R3
U 1 1 60AF98CC
P 1450 1200
F 0 "R3" V 1350 1200 50  0000 C CNN
F 1 "1K" V 1450 1200 50  0000 C CNN
F 2 "" V 1380 1200 50  0001 C CNN
F 3 "~" H 1450 1200 50  0001 C CNN
	1    1450 1200
	1    0    0    -1  
$EndComp
$Comp
L power:+5V #PWR0115
U 1 1 60AD1C64
P 1250 850
F 0 "#PWR0115" H 1250 700 50  0001 C CNN
F 1 "+5V" H 1265 1023 50  0000 C CNN
F 2 "" H 1250 850 50  0001 C CNN
F 3 "" H 1250 850 50  0001 C CNN
	1    1250 850 
	1    0    0    -1  
$EndComp
$Comp
L Device:R R2
U 1 1 609D45E4
P 1250 1200
F 0 "R2" V 1150 1200 50  0000 C CNN
F 1 "1K" V 1250 1200 50  0000 C CNN
F 2 "" V 1180 1200 50  0001 C CNN
F 3 "~" H 1250 1200 50  0001 C CNN
	1    1250 1200
	1    0    0    -1  
$EndComp
Connection ~ 1250 950 
Wire Wire Line
	1250 950  1050 950 
$Comp
L Device:R R1
U 1 1 609EDA78
P 1050 1200
F 0 "R1" V 950 1200 50  0000 C CNN
F 1 "1K" V 1050 1200 50  0000 C CNN
F 2 "" V 980 1200 50  0001 C CNN
F 3 "~" H 1050 1200 50  0001 C CNN
	1    1050 1200
	1    0    0    -1  
$EndComp
Wire Wire Line
	1250 850  1250 950 
Wire Wire Line
	1450 1550 1550 1550
Connection ~ 1450 1550
Wire Wire Line
	1000 1550 1450 1550
Connection ~ 1250 1650
Wire Wire Line
	1000 1650 1250 1650
Connection ~ 1050 1750
Wire Wire Line
	1000 1750 1050 1750
Text GLabel 1000 1650 0    50   Input ~ 0
CPU_BE
Wire Wire Line
	1000 1450 1550 1450
Wire Wire Line
	6850 2800 6950 2800
Text GLabel 6950 2800 2    50   Input ~ 0
CPU_RW
Text GLabel 2550 1450 2    50   Input ~ 0
CPU_RW
Text GLabel 1000 1450 0    50   Input ~ 0
CLK_SW
Wire Wire Line
	1050 1750 1200 1750
Wire Wire Line
	1250 1650 1550 1650
Connection ~ 1550 2650
Wire Wire Line
	1550 2650 1500 2650
Connection ~ 1550 3000
Text GLabel 1500 2650 0    50   Input ~ 0
CPU_NMI
Wire Wire Line
	1050 2550 1550 2550
Text GLabel 1050 2550 0    50   Input ~ 0
CPU_IRQ
Wire Wire Line
	1550 2700 1550 2650
Wire Wire Line
	1050 2700 1050 2550
$Comp
L Device:R R7
U 1 1 61708CEA
P 1550 2850
F 0 "R7" V 1450 2850 50  0000 C CNN
F 1 "1K" V 1550 2850 50  0000 C CNN
F 2 "" V 1480 2850 50  0001 C CNN
F 3 "~" H 1550 2850 50  0001 C CNN
	1    1550 2850
	1    0    0    -1  
$EndComp
$Comp
L Device:R R4
U 1 1 6170813E
P 1050 2850
F 0 "R4" V 950 2850 50  0000 C CNN
F 1 "1K" V 1050 2850 50  0000 C CNN
F 2 "" V 980 2850 50  0001 C CNN
F 3 "~" H 1050 2850 50  0001 C CNN
	1    1050 2850
	1    0    0    -1  
$EndComp
$Comp
L power:PWR_FLAG #FLG0102
U 1 1 614ADE3B
P 800 3850
F 0 "#FLG0102" H 800 3925 50  0001 C CNN
F 1 "PWR_FLAG" V 800 3978 50  0000 L CNN
F 2 "" H 800 3850 50  0001 C CNN
F 3 "~" H 800 3850 50  0001 C CNN
	1    800  3850
	0    1    1    0   
$EndComp
$Comp
L power:PWR_FLAG #FLG0101
U 1 1 614AD68A
P 800 3650
F 0 "#FLG0101" H 800 3725 50  0001 C CNN
F 1 "PWR_FLAG" V 800 3778 50  0000 L CNN
F 2 "" H 800 3650 50  0001 C CNN
F 3 "~" H 800 3650 50  0001 C CNN
	1    800  3650
	0    1    1    0   
$EndComp
Wire Wire Line
	700  3850 700  3950
Wire Wire Line
	800  3850 700  3850
Wire Wire Line
	700  3650 800  3650
Wire Wire Line
	700  3550 700  3650
$Comp
L power:GND #PWR0128
U 1 1 61492AF4
P 700 3950
F 0 "#PWR0128" H 700 3700 50  0001 C CNN
F 1 "GND" H 705 3777 50  0000 C CNN
F 2 "" H 700 3950 50  0001 C CNN
F 3 "" H 700 3950 50  0001 C CNN
	1    700  3950
	1    0    0    -1  
$EndComp
$Comp
L power:+5V #PWR0127
U 1 1 61492456
P 700 3550
F 0 "#PWR0127" H 700 3400 50  0001 C CNN
F 1 "+5V" H 715 3723 50  0000 C CNN
F 2 "" H 700 3550 50  0001 C CNN
F 3 "" H 700 3550 50  0001 C CNN
	1    700  3550
	1    0    0    -1  
$EndComp
Wire Wire Line
	4450 3650 4450 3750
Connection ~ 4450 3650
Wire Wire Line
	4250 3650 4450 3650
$Comp
L Device:R R6
U 1 1 61025DB1
P 4100 3650
F 0 "R6" V 4200 3650 50  0000 C CNN
F 1 "1K" V 4100 3650 50  0000 C CNN
F 2 "" V 4030 3650 50  0001 C CNN
F 3 "~" H 4100 3650 50  0001 C CNN
	1    4100 3650
	0    -1   -1   0   
$EndComp
Wire Wire Line
	4450 3600 4450 3650
Connection ~ 3950 3300
Wire Wire Line
	3950 3300 3950 3650
Wire Wire Line
	4050 3300 3950 3300
$Comp
L Device:R R5
U 1 1 60BC8477
P 3500 2850
F 0 "R5" V 3400 2850 50  0000 C CNN
F 1 "1K" V 3500 2850 50  0000 C CNN
F 2 "" V 3430 2850 50  0001 C CNN
F 3 "~" H 3500 2850 50  0001 C CNN
	1    3500 2850
	1    0    0    -1  
$EndComp
$Comp
L power:+5V #PWR0116
U 1 1 60BC7886
P 3500 2700
F 0 "#PWR0116" H 3500 2550 50  0001 C CNN
F 1 "+5V" H 3515 2873 50  0000 C CNN
F 2 "" H 3500 2700 50  0001 C CNN
F 3 "" H 3500 2700 50  0001 C CNN
	1    3500 2700
	1    0    0    -1  
$EndComp
Wire Wire Line
	4050 3200 3500 3200
$Comp
L Memory_RAM:CY62256-70PC U7
U 1 1 60800B60
P 6350 2300
F 0 "U7" H 6350 2800 50  0000 C CNN
F 1 "CY62256-70PC" V 6350 2350 50  0000 C CNN
F 2 "Package_DIP:DIP-28_W15.24mm" H 6350 2200 50  0001 C CNN
F 3 "https://ecee.colorado.edu/~mcclurel/Cypress_SRAM_CY62256.pdf" H 6350 2200 50  0001 C CNN
	1    6350 2300
	1    0    0    -1  
$EndComp
Entry Wire Line
	5500 1600 5400 1700
Entry Wire Line
	5500 1700 5400 1800
Entry Wire Line
	5500 1800 5400 1900
Entry Wire Line
	5500 1900 5400 2000
Entry Wire Line
	5500 2000 5400 2100
Entry Wire Line
	5500 2100 5400 2200
Entry Wire Line
	5500 2200 5400 2300
Entry Wire Line
	5500 2300 5400 2400
Entry Wire Line
	5500 2400 5400 2500
Entry Wire Line
	5500 2500 5400 2600
Entry Wire Line
	5500 2600 5400 2700
Entry Wire Line
	5500 2700 5400 2800
Entry Wire Line
	5500 2800 5400 2900
Entry Wire Line
	5500 2900 5400 3000
Entry Wire Line
	5500 3000 5400 3100
Wire Wire Line
	5500 1600 5850 1600
Wire Wire Line
	5850 1700 5500 1700
Wire Wire Line
	5500 1800 5850 1800
Wire Wire Line
	5850 1900 5500 1900
Wire Wire Line
	5500 2000 5850 2000
Wire Wire Line
	5850 2100 5500 2100
Wire Wire Line
	5500 2200 5850 2200
Wire Wire Line
	5850 2300 5500 2300
Wire Wire Line
	5500 2400 5850 2400
Wire Wire Line
	5850 2500 5500 2500
Wire Wire Line
	5500 2600 5850 2600
Wire Wire Line
	5850 2700 5500 2700
Wire Wire Line
	5500 2800 5850 2800
Wire Wire Line
	5850 2900 5500 2900
Wire Wire Line
	5500 3000 5850 3000
Text Label 5850 1600 2    50   ~ 0
CPU_A0
Text Label 5850 1700 2    50   ~ 0
CPU_A1
Text Label 5850 1800 2    50   ~ 0
CPU_A2
Text Label 5850 1900 2    50   ~ 0
CPU_A3
Text Label 5850 2000 2    50   ~ 0
CPU_A4
Text Label 5850 2100 2    50   ~ 0
CPU_A5
Text Label 5850 2200 2    50   ~ 0
CPU_A6
Text Label 5850 2300 2    50   ~ 0
CPU_A7
Text Label 5850 2400 2    50   ~ 0
CPU_A8
Text Label 5850 2500 2    50   ~ 0
CPU_A9
Text Label 5850 2600 2    50   ~ 0
CPU_A10
Text Label 5850 2700 2    50   ~ 0
CPU_A11
Text Label 5850 2800 2    50   ~ 0
CPU_A12
Text Label 5850 2900 2    50   ~ 0
CPU_A13
Text Label 5850 3000 2    50   ~ 0
CPU_A14
Entry Wire Line
	7300 2700 7400 2800
Wire Wire Line
	6850 2700 7300 2700
Text Label 6850 2700 0    50   ~ 0
CPU_A14
Wire Bus Line
	2950 1100 5300 1100
Entry Wire Line
	7250 2200 7150 2300
Entry Wire Line
	7250 2100 7150 2200
Entry Wire Line
	7150 2100 7250 2000
Entry Wire Line
	7150 2000 7250 1900
Entry Wire Line
	7150 1900 7250 1800
Entry Wire Line
	7150 1800 7250 1700
Entry Wire Line
	7150 1700 7250 1600
Entry Wire Line
	7150 1600 7250 1500
Wire Wire Line
	6850 1600 7150 1600
Wire Wire Line
	7150 1700 6850 1700
Wire Wire Line
	6850 1800 7150 1800
Wire Wire Line
	7150 1900 6850 1900
Wire Wire Line
	6850 2000 7150 2000
Wire Wire Line
	7150 2100 6850 2100
Wire Wire Line
	6850 2200 7150 2200
Wire Wire Line
	7150 2300 6850 2300
Text Label 6850 1600 0    50   ~ 0
CPU_D0
Text Label 6850 1700 0    50   ~ 0
CPU_D1
Text Label 6850 1800 0    50   ~ 0
CPU_D2
Text Label 6850 1900 0    50   ~ 0
CPU_D3
Text Label 6850 2000 0    50   ~ 0
CPU_D4
Text Label 6850 2100 0    50   ~ 0
CPU_D5
Text Label 6850 2200 0    50   ~ 0
CPU_D6
Text Label 6850 2300 0    50   ~ 0
CPU_D7
$Comp
L power:GND #PWR0114
U 1 1 6083794E
P 6350 3200
F 0 "#PWR0114" H 6350 2950 50  0001 C CNN
F 1 "GND" H 6355 3027 50  0000 C CNN
F 2 "" H 6350 3200 50  0001 C CNN
F 3 "" H 6350 3200 50  0001 C CNN
	1    6350 3200
	1    0    0    -1  
$EndComp
$Comp
L power:+5V #PWR0113
U 1 1 608388A7
P 6350 1400
F 0 "#PWR0113" H 6350 1250 50  0001 C CNN
F 1 "+5V" H 6365 1573 50  0000 C CNN
F 2 "" H 6350 1400 50  0001 C CNN
F 3 "" H 6350 1400 50  0001 C CNN
	1    6350 1400
	1    0    0    -1  
$EndComp
Text Notes 6000 1400 0    50   ~ 0
RAM\n
$Comp
L Memory_EEPROM:28C256 U6
U 1 1 6083E9E6
P 4450 2500
F 0 "U6" H 4450 3150 50  0000 C CNN
F 1 "28C256" V 4450 2550 50  0000 C CNN
F 2 "" H 4450 2500 50  0001 C CNN
F 3 "http://ww1.microchip.com/downloads/en/DeviceDoc/doc0006.pdf" H 4450 2500 50  0001 C CNN
	1    4450 2500
	1    0    0    -1  
$EndComp
Entry Wire Line
	3700 1600 3600 1700
Entry Wire Line
	3700 1700 3600 1800
Entry Wire Line
	3600 1900 3700 1800
Entry Wire Line
	3600 2000 3700 1900
Entry Wire Line
	3600 2100 3700 2000
Entry Wire Line
	3600 2200 3700 2100
Entry Wire Line
	3600 2300 3700 2200
Entry Wire Line
	3600 2400 3700 2300
Entry Wire Line
	3600 2500 3700 2400
Entry Wire Line
	3600 2600 3700 2500
Entry Wire Line
	3600 2700 3700 2600
Entry Wire Line
	3600 2800 3700 2700
Entry Wire Line
	3600 2900 3700 2800
Entry Wire Line
	3600 3000 3700 2900
Entry Wire Line
	3600 3100 3700 3000
Entry Wire Line
	5300 2200 5200 2300
Entry Wire Line
	5200 2200 5300 2100
Entry Wire Line
	5200 2100 5300 2000
Entry Wire Line
	5200 2000 5300 1900
Entry Wire Line
	5200 1900 5300 1800
Entry Wire Line
	5200 1800 5300 1700
Entry Wire Line
	5200 1700 5300 1600
Entry Wire Line
	5200 1600 5300 1500
Wire Wire Line
	4850 1600 5200 1600
Wire Wire Line
	4850 1700 5200 1700
Wire Wire Line
	4850 1800 5200 1800
Wire Wire Line
	4850 1900 5200 1900
Wire Wire Line
	5200 2000 4850 2000
Wire Wire Line
	4850 2100 5200 2100
Wire Wire Line
	5200 2200 4850 2200
Wire Wire Line
	4850 2300 5200 2300
Wire Wire Line
	3700 1600 4050 1600
Wire Wire Line
	3700 1700 4050 1700
Wire Wire Line
	4050 1800 3700 1800
Wire Wire Line
	3700 1900 4050 1900
Wire Wire Line
	4050 2000 3700 2000
Wire Wire Line
	3700 2100 4050 2100
Wire Wire Line
	4050 2200 3700 2200
Wire Wire Line
	3700 2300 4050 2300
Wire Wire Line
	4050 2400 3700 2400
Wire Wire Line
	3700 2500 4050 2500
Wire Wire Line
	4050 2600 3700 2600
Wire Wire Line
	3700 2700 4050 2700
Wire Wire Line
	3700 2800 4050 2800
Wire Wire Line
	4050 2900 3700 2900
Wire Wire Line
	3700 3000 4050 3000
Text Label 4050 1600 2    50   ~ 0
CPU_A0
Text Label 4050 1700 2    50   ~ 0
CPU_A1
Text Label 4050 1800 2    50   ~ 0
CPU_A2
Text Label 4050 1900 2    50   ~ 0
CPU_A3
Text Label 4050 2000 2    50   ~ 0
CPU_A4
Text Label 4050 2100 2    50   ~ 0
CPU_A5
Text Label 4050 2200 2    50   ~ 0
CPU_A6
Text Label 4050 2300 2    50   ~ 0
CPU_A7
Text Label 4050 2400 2    50   ~ 0
CPU_A8
Text Label 4050 2500 2    50   ~ 0
CPU_A9
Text Label 4050 2600 2    50   ~ 0
CPU_A10
Text Label 4050 2700 2    50   ~ 0
CPU_A11
Text Label 4050 2800 2    50   ~ 0
CPU_A12
Text Label 4050 2900 2    50   ~ 0
CPU_A13
Text Label 4050 3000 2    50   ~ 0
CPU_A14
Text Label 4850 1600 0    50   ~ 0
CPU_D0
Text Label 4850 1700 0    50   ~ 0
CPU_D1
Text Label 4850 1800 0    50   ~ 0
CPU_D2
Text Label 4850 1900 0    50   ~ 0
CPU_D3
Text Label 4850 2000 0    50   ~ 0
CPU_D4
Text Label 4850 2100 0    50   ~ 0
CPU_D5
Text Label 4850 2200 0    50   ~ 0
CPU_D6
Text Label 4850 2300 0    50   ~ 0
CPU_D7
$Comp
L power:+5V #PWR0112
U 1 1 6088B2D0
P 4450 1400
F 0 "#PWR0112" H 4450 1250 50  0001 C CNN
F 1 "+5V" H 4465 1573 50  0000 C CNN
F 2 "" H 4450 1400 50  0001 C CNN
F 3 "" H 4450 1400 50  0001 C CNN
	1    4450 1400
	1    0    0    -1  
$EndComp
$Comp
L power:GND #PWR0111
U 1 1 6088CEB6
P 4450 3750
F 0 "#PWR0111" H 4450 3500 50  0001 C CNN
F 1 "GND" H 4455 3577 50  0000 C CNN
F 2 "" H 4450 3750 50  0001 C CNN
F 3 "" H 4450 3750 50  0001 C CNN
	1    4450 3750
	1    0    0    -1  
$EndComp
Text Notes 4150 1400 0    50   ~ 0
ROM\n
$Comp
L Switch:SW_Push SW1
U 1 1 60B4ADA5
P 1000 2000
F 0 "SW1" H 1100 2100 50  0000 C CNN
F 1 "Reset" H 1000 1950 50  0000 C CNN
F 2 "" H 1000 2200 50  0001 C CNN
F 3 "~" H 1000 2200 50  0001 C CNN
	1    1000 2000
	1    0    0    -1  
$EndComp
Wire Wire Line
	2450 1450 2550 1450
NoConn ~ 1550 2000
NoConn ~ 1550 2100
NoConn ~ 1550 2200
NoConn ~ 1550 3750
NoConn ~ 1550 3850
NoConn ~ 1550 3950
$Comp
L wraithan-symbols:65C02S U5
U 1 1 607FDA2E
P 2000 2750
F 0 "U5" H 2000 3750 50  0000 C CNN
F 1 "65C02S" V 2000 2900 50  0000 C CNN
F 2 "Package_DIP:DIP-40_W15.24mm_Socket" H 1300 4700 50  0001 C CNN
F 3 "https://www.westerndesigncenter.com/wdc/documentation/w65c02s.pdf" H 1300 4700 50  0001 C CNN
	1    2000 2750
	1    0    0    -1  
$EndComp
Connection ~ 1050 3300
$Comp
L power:GND #PWR0102
U 1 1 608376C4
P 1050 3300
F 0 "#PWR0102" H 1050 3050 50  0001 C CNN
F 1 "GND" H 1055 3127 50  0000 C CNN
F 2 "" H 1050 3300 50  0001 C CNN
F 3 "" H 1050 3300 50  0001 C CNN
	1    1050 3300
	1    0    0    -1  
$EndComp
Connection ~ 1050 3000
$Comp
L power:+5V #PWR0101
U 1 1 60836AF6
P 1050 3000
F 0 "#PWR0101" H 1050 2850 50  0001 C CNN
F 1 "+5V" H 1065 3173 50  0000 C CNN
F 2 "" H 1050 3000 50  0001 C CNN
F 3 "" H 1050 3000 50  0001 C CNN
	1    1050 3000
	0    -1   -1   0   
$EndComp
Wire Wire Line
	1550 3300 1050 3300
Wire Wire Line
	1550 3200 1550 3300
Wire Wire Line
	1550 3000 1050 3000
Wire Wire Line
	1550 3100 1550 3000
$Comp
L Device:C C1
U 1 1 60832C5D
P 1050 3150
F 0 "C1" H 1050 3250 50  0000 L CNN
F 1 "10nF" H 1050 3050 50  0000 L CNN
F 2 "" H 1088 3000 50  0001 C CNN
F 3 "~" H 1050 3150 50  0001 C CNN
	1    1050 3150
	1    0    0    -1  
$EndComp
Text Label 2450 2350 0    50   ~ 0
CPU_D7
Text Label 2450 2250 0    50   ~ 0
CPU_D6
Text Label 2450 2150 0    50   ~ 0
CPU_D5
Text Label 2450 2050 0    50   ~ 0
CPU_D4
Text Label 2450 1950 0    50   ~ 0
CPU_D3
Text Label 2450 1850 0    50   ~ 0
CPU_D2
Text Label 2450 1750 0    50   ~ 0
CPU_D1
Text Label 2450 1650 0    50   ~ 0
CPU_D0
Wire Wire Line
	2450 2350 2850 2350
Wire Wire Line
	2450 2250 2850 2250
Wire Wire Line
	2450 2150 2850 2150
Wire Wire Line
	2450 2050 2850 2050
Wire Wire Line
	2450 1950 2850 1950
Wire Wire Line
	2450 1850 2850 1850
Wire Wire Line
	2450 1750 2850 1750
Wire Wire Line
	2450 1650 2850 1650
Entry Wire Line
	2950 1550 2850 1650
Entry Wire Line
	2950 1650 2850 1750
Entry Wire Line
	2950 1750 2850 1850
Entry Wire Line
	2950 1850 2850 1950
Entry Wire Line
	2950 1950 2850 2050
Entry Wire Line
	2950 2050 2850 2150
Entry Wire Line
	2950 2150 2850 2250
Entry Wire Line
	2950 2250 2850 2350
Text Label 2450 4050 0    50   ~ 0
CPU_A15
Text Label 2450 3950 0    50   ~ 0
CPU_A14
Text Label 2450 3850 0    50   ~ 0
CPU_A13
Text Label 2450 3750 0    50   ~ 0
CPU_A12
Text Label 2450 3650 0    50   ~ 0
CPU_A11
Text Label 2450 3550 0    50   ~ 0
CPU_A10
Text Label 2450 3450 0    50   ~ 0
CPU_A9
Text Label 2450 3350 0    50   ~ 0
CPU_A8
Text Label 2450 3250 0    50   ~ 0
CPU_A7
Text Label 2450 3150 0    50   ~ 0
CPU_A6
Text Label 2450 3050 0    50   ~ 0
CPU_A5
Text Label 2450 2950 0    50   ~ 0
CPU_A4
Text Label 2450 2850 0    50   ~ 0
CPU_A3
Text Label 2450 2750 0    50   ~ 0
CPU_A2
Text Label 2450 2650 0    50   ~ 0
CPU_A1
Text Label 2450 2550 0    50   ~ 0
CPU_A0
Wire Wire Line
	2450 4050 2850 4050
Wire Wire Line
	2850 3950 2450 3950
Wire Wire Line
	2450 3850 2850 3850
Wire Wire Line
	2850 3750 2450 3750
Wire Wire Line
	2450 3650 2850 3650
Wire Wire Line
	2450 3550 2850 3550
Wire Wire Line
	2450 3450 2850 3450
Wire Wire Line
	2450 3350 2850 3350
Wire Wire Line
	2450 3250 2850 3250
Wire Wire Line
	2450 3150 2850 3150
Wire Wire Line
	2450 3050 2850 3050
Wire Wire Line
	2450 2950 2850 2950
Wire Wire Line
	2450 2850 2850 2850
Wire Wire Line
	2450 2750 2850 2750
Wire Wire Line
	2450 2650 2850 2650
Wire Wire Line
	2450 2550 2850 2550
Entry Wire Line
	2850 4050 2950 4150
Entry Wire Line
	2850 3950 2950 4050
Entry Wire Line
	2850 3850 2950 3950
Entry Wire Line
	2850 3750 2950 3850
Entry Wire Line
	2850 3650 2950 3750
Entry Wire Line
	2850 3550 2950 3650
Entry Wire Line
	2850 3450 2950 3550
Entry Wire Line
	2850 3350 2950 3450
Entry Wire Line
	2850 3250 2950 3350
Entry Wire Line
	2850 3150 2950 3250
Entry Wire Line
	2850 3050 2950 3150
Entry Wire Line
	2850 2950 2950 3050
Entry Wire Line
	2850 2850 2950 2950
Entry Wire Line
	2850 2750 2950 2850
Entry Wire Line
	2850 2650 2950 2750
Entry Wire Line
	2850 2550 2950 2650
Text Notes 550  600  0    50   ~ 0
Core - Processor, ROM, RAM
Wire Bus Line
	2950 4100 3600 4100
Connection ~ 2950 4100
Text Notes 7850 600  0    50   ~ 0
Delightful Debugger / ROM Programmer
$Comp
L wraithan-symbols:Teensy++2.0 U3
U 1 1 608A94B6
P 9350 2350
F 0 "U3" H 9350 3525 50  0000 C CNN
F 1 "Teensy++2.0" H 9350 3434 50  0000 C CNN
F 2 "" H 9350 2350 50  0001 C CNN
F 3 "" H 9350 2350 50  0001 C CNN
	1    9350 2350
	1    0    0    -1  
$EndComp
Entry Wire Line
	10150 2600 10250 2700
Entry Wire Line
	10150 2700 10250 2800
Entry Wire Line
	10150 2800 10250 2900
Entry Wire Line
	10150 2900 10250 3000
Entry Wire Line
	10150 3000 10250 3100
Entry Wire Line
	10150 3100 10250 3200
Entry Wire Line
	10150 3200 10250 3300
Entry Wire Line
	10150 3300 10250 3400
Entry Wire Line
	8500 3300 8400 3400
Entry Wire Line
	8400 3300 8500 3200
Entry Wire Line
	8400 3200 8500 3100
Entry Wire Line
	8400 3100 8500 3000
Entry Wire Line
	8400 3000 8500 2900
Entry Wire Line
	8400 2900 8500 2800
Entry Wire Line
	8400 2800 8500 2700
Entry Wire Line
	8400 2700 8500 2600
Wire Wire Line
	8500 2600 8950 2600
Wire Wire Line
	8500 2700 8950 2700
Wire Wire Line
	8500 2800 8950 2800
Wire Wire Line
	8950 2900 8500 2900
Wire Wire Line
	8500 3000 8950 3000
Wire Wire Line
	8950 3100 8500 3100
Wire Wire Line
	8500 3200 8950 3200
Wire Wire Line
	8950 3300 8500 3300
Wire Wire Line
	9750 3300 10150 3300
Wire Wire Line
	9750 3200 10150 3200
Wire Wire Line
	10150 3100 9750 3100
Wire Wire Line
	9750 3000 10150 3000
Wire Wire Line
	10150 2900 9750 2900
Wire Wire Line
	9750 2800 10150 2800
Wire Wire Line
	10150 2700 9750 2700
Wire Wire Line
	9750 2600 10150 2600
NoConn ~ 9750 2500
Entry Wire Line
	10250 2000 10150 2100
Entry Wire Line
	10150 2000 10250 1900
Entry Wire Line
	10150 1900 10250 1800
Entry Wire Line
	10150 1800 10250 1700
Entry Wire Line
	10150 1700 10250 1600
Entry Wire Line
	10150 1600 10250 1500
Entry Wire Line
	10150 1500 10250 1400
Wire Wire Line
	9750 1500 10150 1500
Wire Wire Line
	9750 1600 10150 1600
Wire Wire Line
	10150 1700 9750 1700
Wire Wire Line
	9750 1800 10150 1800
Wire Wire Line
	10150 1900 9750 1900
Wire Wire Line
	9750 2000 10150 2000
Wire Wire Line
	10150 2100 9750 2100
Text Label 9750 3300 0    50   ~ 0
CPU_A15
Text Label 9750 3200 0    50   ~ 0
CPU_A14
Text Label 9750 3100 0    50   ~ 0
CPU_A13
Text Label 9750 3000 0    50   ~ 0
CPU_A12
Text Label 9750 2900 0    50   ~ 0
CPU_A11
Text Label 9750 2800 0    50   ~ 0
CPU_A10
Text Label 9750 2700 0    50   ~ 0
CPU_A9
Text Label 9750 2600 0    50   ~ 0
CPU_A8
Text Label 8950 3300 2    50   ~ 0
CPU_A7
Text Label 8950 3200 2    50   ~ 0
CPU_A6
Text Label 8950 3100 2    50   ~ 0
CPU_A5
Text Label 8950 3000 2    50   ~ 0
CPU_A4
Text Label 8950 2900 2    50   ~ 0
CPU_A3
Text Label 8950 2800 2    50   ~ 0
CPU_A2
Text Label 8950 2700 2    50   ~ 0
CPU_A1
Text Label 8950 2600 2    50   ~ 0
CPU_A0
Entry Wire Line
	10250 1000 10150 1100
Wire Wire Line
	10150 1100 8550 1100
Wire Wire Line
	8550 1100 8550 1500
Wire Wire Line
	8550 1500 8950 1500
Text Label 10050 1100 2    50   ~ 0
CPU_D7
Text Label 9750 1500 0    50   ~ 0
CPU_D6
Text Label 9750 1600 0    50   ~ 0
CPU_D5
Text Label 9750 1700 0    50   ~ 0
CPU_D4
Text Label 9750 1800 0    50   ~ 0
CPU_D3
Text Label 9750 1900 0    50   ~ 0
CPU_D2
Text Label 9750 2000 0    50   ~ 0
CPU_D1
Text Label 9750 2100 0    50   ~ 0
CPU_D0
$Comp
L power:GND #PWR0103
U 1 1 60991C74
P 8950 1200
F 0 "#PWR0103" H 8950 950 50  0001 C CNN
F 1 "GND" V 8955 1072 50  0000 R CNN
F 2 "" H 8950 1200 50  0001 C CNN
F 3 "" H 8950 1200 50  0001 C CNN
	1    8950 1200
	0    1    1    0   
$EndComp
$Comp
L power:+5V #PWR0104
U 1 1 609926F9
P 9750 1200
F 0 "#PWR0104" H 9750 1050 50  0001 C CNN
F 1 "+5V" V 9765 1328 50  0000 L CNN
F 2 "" H 9750 1200 50  0001 C CNN
F 3 "" H 9750 1200 50  0001 C CNN
	1    9750 1200
	0    1    1    0   
$EndComp
Wire Wire Line
	9750 1200 9750 1400
Wire Wire Line
	8950 1200 8950 1400
$Comp
L power:GND #PWR0109
U 1 1 60AA90D9
P 9750 2400
F 0 "#PWR0109" H 9750 2150 50  0001 C CNN
F 1 "GND" V 9755 2272 50  0000 R CNN
F 2 "" H 9750 2400 50  0001 C CNN
F 3 "" H 9750 2400 50  0001 C CNN
	1    9750 2400
	0    -1   -1   0   
$EndComp
Wire Bus Line
	8400 3650 10250 3650
Wire Wire Line
	8950 2100 8850 2100
Wire Wire Line
	8950 2300 8850 2300
NoConn ~ 8950 2200
Text Notes 8900 2250 2    50   ~ 0
Onboard LED
NoConn ~ 8950 2400
NoConn ~ 8950 2500
Text GLabel 9850 2300 2    50   Input ~ 0
CPU_RW
Wire Wire Line
	9750 2300 9850 2300
Wire Wire Line
	9750 2200 9850 2200
Text GLabel 9850 2200 2    50   Input ~ 0
CLK_SW
Text GLabel 8850 1600 0    50   Input ~ 0
CPU_RDY
Wire Wire Line
	8850 1600 8950 1600
Text GLabel 8850 1700 0    50   Input ~ 0
CPU_BE
Wire Wire Line
	8850 1700 8950 1700
Text GLabel 8850 2000 0    50   Input ~ 0
CPU_RES
Wire Wire Line
	8850 2000 8950 2000
Text GLabel 8850 1800 0    50   Input ~ 0
ROM_WE
Wire Wire Line
	8850 1800 8950 1800
Text GLabel 8850 1900 0    50   Input ~ 0
ROM_OE
Wire Wire Line
	8950 1900 8850 1900
Text GLabel 8850 2300 0    50   Input ~ 0
ROM_CS
Text GLabel 8850 2100 0    50   Input ~ 0
TEENSY_ROM_CS
Text GLabel 10250 900  0    50   Input ~ 0
CPU_DATA
Text GLabel 10250 3500 0    50   Input ~ 0
CPU_ADDRESS
Text GLabel 9100 4050 2    50   Input ~ 0
CPU_ADDRESS
Text Notes 7850 4000 0    50   ~ 0
Address Decoding
Text Notes 550  4500 0    50   ~ 0
Clock Circuit
Wire Notes Line
	3250 4400 3250 8000
$Comp
L 74xx:74HC74 U2
U 3 1 609A5220
P 750 7300
F 0 "U2" H 650 7350 50  0000 L CNN
F 1 "74HC74" H 600 7250 50  0000 L CNN
F 2 "" H 750 7300 50  0001 C CNN
F 3 "74xx/74hc_hct74.pdf" H 750 7300 50  0001 C CNN
	3    750  7300
	1    0    0    -1  
$EndComp
$Comp
L power:GND #PWR0107
U 1 1 60AA8065
P 750 7700
F 0 "#PWR0107" H 750 7450 50  0001 C CNN
F 1 "GND" H 755 7527 50  0000 C CNN
F 2 "" H 750 7700 50  0001 C CNN
F 3 "" H 750 7700 50  0001 C CNN
	1    750  7700
	1    0    0    -1  
$EndComp
$Comp
L power:+5V #PWR0108
U 1 1 60AA88A5
P 750 6900
F 0 "#PWR0108" H 750 6750 50  0001 C CNN
F 1 "+5V" H 765 7073 50  0000 C CNN
F 2 "" H 750 6900 50  0001 C CNN
F 3 "" H 750 6900 50  0001 C CNN
	1    750  6900
	1    0    0    -1  
$EndComp
Connection ~ 8850 4900
Text Notes 1900 7000 0    50   ~ 0
1.832MHz
Wire Wire Line
	1100 6550 1950 6550
Wire Wire Line
	1100 6550 1100 7100
Wire Wire Line
	2400 6850 2400 7000
Wire Wire Line
	1950 5800 1950 6550
Connection ~ 8150 4600
Wire Wire Line
	8150 4150 8150 4600
Wire Wire Line
	9100 4150 9100 4500
Connection ~ 8850 4700
Wire Wire Line
	8850 4700 8850 4900
Wire Wire Line
	8850 4700 9350 4700
Wire Wire Line
	8750 5500 9350 5500
Connection ~ 8750 5500
Wire Wire Line
	8750 5350 8750 5500
Wire Wire Line
	8650 5500 8750 5500
Wire Wire Line
	8750 5000 8750 5050
$Comp
L power:+5V #PWR0129
U 1 1 60EE1D15
P 8750 5000
F 0 "#PWR0129" H 8750 4850 50  0001 C CNN
F 1 "+5V" H 8765 5173 50  0000 C CNN
F 2 "" H 8750 5000 50  0001 C CNN
F 3 "" H 8750 5000 50  0001 C CNN
	1    8750 5000
	1    0    0    -1  
$EndComp
Text GLabel 8650 5500 0    50   Input ~ 0
TEENSY_ROM_CS
$Comp
L Device:R R8
U 1 1 60EB5AE0
P 8750 5200
F 0 "R8" V 8650 5200 50  0000 C CNN
F 1 "1K" V 8750 5200 50  0000 C CNN
F 2 "" V 8680 5200 50  0001 C CNN
F 3 "~" H 8750 5200 50  0001 C CNN
	1    8750 5200
	1    0    0    -1  
$EndComp
Text GLabel 10050 5000 2    50   Input ~ 0
RAM_CS
Text GLabel 10050 4600 2    50   Input ~ 0
IO_CS
Text GLabel 10050 5400 2    50   Input ~ 0
ROM_CS
Wire Wire Line
	9950 5400 10050 5400
$Comp
L power:+5V #PWR0124
U 1 1 613E3EAC
P 1550 7400
F 0 "#PWR0124" H 1550 7250 50  0001 C CNN
F 1 "+5V" H 1565 7573 50  0000 C CNN
F 2 "" H 1550 7400 50  0001 C CNN
F 3 "" H 1550 7400 50  0001 C CNN
	1    1550 7400
	-1   0    0    1   
$EndComp
$Comp
L power:+5V #PWR0123
U 1 1 613E324F
P 1550 6800
F 0 "#PWR0123" H 1550 6650 50  0001 C CNN
F 1 "+5V" H 1565 6973 50  0000 C CNN
F 2 "" H 1550 6800 50  0001 C CNN
F 3 "" H 1550 6800 50  0001 C CNN
	1    1550 6800
	1    0    0    -1  
$EndComp
$Comp
L power:+5V #PWR0122
U 1 1 613E2798
P 1550 6200
F 0 "#PWR0122" H 1550 6050 50  0001 C CNN
F 1 "+5V" H 1565 6373 50  0000 C CNN
F 2 "" H 1550 6200 50  0001 C CNN
F 3 "" H 1550 6200 50  0001 C CNN
	1    1550 6200
	-1   0    0    1   
$EndComp
$Comp
L power:+5V #PWR0121
U 1 1 613CA3E8
P 1350 5600
F 0 "#PWR0121" H 1350 5450 50  0001 C CNN
F 1 "+5V" H 1365 5773 50  0000 C CNN
F 2 "" H 1350 5600 50  0001 C CNN
F 3 "" H 1350 5600 50  0001 C CNN
	1    1350 5600
	1    0    0    -1  
$EndComp
Wire Wire Line
	1550 5600 1350 5600
Wire Wire Line
	1100 7100 1250 7100
Wire Wire Line
	1200 7650 1200 7000
$Comp
L wraithan-symbols:74HC161 U4
U 1 1 609E4932
P 2650 6500
F 0 "U4" V 2650 6750 50  0000 C CNN
F 1 "74HC161" V 2650 6350 50  0000 C CNN
F 2 "" H 2650 6500 50  0001 C CNN
F 3 "" H 2650 6500 50  0001 C CNN
	1    2650 6500
	0    -1   -1   0   
$EndComp
Wire Wire Line
	2300 7100 2900 7100
Wire Wire Line
	2800 6150 2800 5800
Connection ~ 2300 7100
Wire Wire Line
	2300 6850 2300 7100
NoConn ~ 2700 6150
NoConn ~ 2600 6150
NoConn ~ 2500 6150
NoConn ~ 2400 6150
Connection ~ 2900 6050
Wire Wire Line
	3000 6050 2900 6050
Wire Wire Line
	2900 6050 2300 6050
Wire Wire Line
	2900 6150 2900 6050
Connection ~ 2300 6050
Wire Wire Line
	2300 6050 2300 6150
Wire Wire Line
	2900 7100 2900 6850
Wire Wire Line
	2100 7100 2300 7100
Wire Wire Line
	2100 6050 2100 7100
Wire Wire Line
	2300 6050 2100 6050
$Comp
L power:+5V #PWR0120
U 1 1 60A135A1
P 2300 6050
F 0 "#PWR0120" H 2300 5900 50  0001 C CNN
F 1 "+5V" H 2315 6223 50  0000 C CNN
F 2 "" H 2300 6050 50  0001 C CNN
F 3 "" H 2300 6050 50  0001 C CNN
	1    2300 6050
	1    0    0    -1  
$EndComp
$Comp
L power:GND #PWR0119
U 1 1 60A11D74
P 3000 7000
F 0 "#PWR0119" H 3000 6750 50  0001 C CNN
F 1 "GND" H 3005 6827 50  0000 C CNN
F 2 "" H 3000 7000 50  0001 C CNN
F 3 "" H 3000 7000 50  0001 C CNN
	1    3000 7000
	1    0    0    -1  
$EndComp
Wire Wire Line
	2800 7000 3000 7000
Connection ~ 2800 7000
Wire Wire Line
	2800 6850 2800 7000
Wire Wire Line
	2700 7000 2800 7000
Connection ~ 2700 7000
Wire Wire Line
	2700 6850 2700 7000
Wire Wire Line
	2600 7000 2700 7000
Connection ~ 2600 7000
Wire Wire Line
	2600 6850 2600 7000
Wire Wire Line
	2500 7000 2600 7000
Wire Wire Line
	2500 6850 2500 7000
Wire Wire Line
	1200 7000 1250 7000
Wire Wire Line
	1850 7650 1200 7650
Wire Wire Line
	1850 7200 1850 7650
$Comp
L 74xx:74HC74 U2
U 2 1 609A39A1
P 1550 7100
F 0 "U2" H 1700 7450 50  0000 C CNN
F 1 "74HC74" H 1750 7350 50  0000 C CNN
F 2 "" H 1550 7100 50  0001 C CNN
F 3 "74xx/74hc_hct74.pdf" H 1550 7100 50  0001 C CNN
	2    1550 7100
	1    0    0    -1  
$EndComp
Connection ~ 3000 7000
Wire Wire Line
	3000 7000 3000 6850
Wire Wire Line
	3000 6150 3000 6050
$Comp
L Oscillator:ACO-xxxMHz X1
U 1 1 60990A46
P 750 5050
F 0 "X1" H 900 5300 50  0000 R CNN
F 1 "7.3728MHz" H 1450 5100 50  0000 R CNN
F 2 "Oscillator:Oscillator_DIP-14" H 1200 4700 50  0001 C CNN
F 3 "http://www.conwin.com/datasheets/cx/cx030.pdf" H 650 5050 50  0001 C CNN
	1    750  5050
	1    0    0    -1  
$EndComp
Wire Wire Line
	9950 4600 10050 4600
Text Label 9100 4150 3    50   ~ 0
CPU_A14
Wire Wire Line
	9100 4500 9350 4500
Entry Wire Line
	9100 4150 9000 4050
Wire Wire Line
	9950 5000 10050 5000
Text Label 8150 4150 3    50   ~ 0
CPU_A15
Wire Wire Line
	8150 4800 8250 4800
Wire Wire Line
	8150 4600 8150 4800
Wire Wire Line
	8150 4600 8250 4600
Entry Wire Line
	8150 4150 8050 4050
$Comp
L 74xx:74HC00 U1
U 4 1 6084B667
P 8550 4700
F 0 "U1" H 8550 4700 50  0000 C CNN
F 1 "74HC00" H 8550 4500 50  0000 C CNN
F 2 "" H 8550 4700 50  0001 C CNN
F 3 "http://www.ti.com/lit/gpn/sn74hc00" H 8550 4700 50  0001 C CNN
	4    8550 4700
	1    0    0    -1  
$EndComp
$Comp
L 74xx:74HC00 U1
U 2 1 608493D9
P 9650 4600
F 0 "U1" H 9650 4600 50  0000 C CNN
F 1 "74HC00" H 9650 4400 50  0000 C CNN
F 2 "" H 9650 4600 50  0001 C CNN
F 3 "http://www.ti.com/lit/gpn/sn74hc00" H 9650 4600 50  0001 C CNN
	2    9650 4600
	1    0    0    -1  
$EndComp
$Comp
L 74xx:74HC00 U1
U 1 1 60846A5D
P 9650 5400
F 0 "U1" H 9650 5400 50  0000 C CNN
F 1 "74HC00" H 9650 5200 50  0000 C CNN
F 2 "" H 9650 5400 50  0001 C CNN
F 3 "http://www.ti.com/lit/gpn/sn74hc00" H 9650 5400 50  0001 C CNN
	1    9650 5400
	1    0    0    -1  
$EndComp
Wire Wire Line
	1150 5800 1250 5800
Wire Wire Line
	1150 6450 1150 5800
Wire Wire Line
	1850 6450 1150 6450
Wire Wire Line
	1850 6000 1850 6450
$Comp
L 74xx:74HC74 U2
U 1 1 609A240B
P 1550 5900
F 0 "U2" H 1550 6381 50  0000 C CNN
F 1 "74HC74" H 1550 6290 50  0000 C CNN
F 2 "" H 1550 5900 50  0001 C CNN
F 3 "74xx/74hc_hct74.pdf" H 1550 5900 50  0001 C CNN
	1    1550 5900
	1    0    0    -1  
$EndComp
$Comp
L power:GND #PWR0106
U 1 1 609A1598
P 750 5350
F 0 "#PWR0106" H 750 5100 50  0001 C CNN
F 1 "GND" H 755 5177 50  0000 C CNN
F 2 "" H 750 5350 50  0001 C CNN
F 3 "" H 750 5350 50  0001 C CNN
	1    750  5350
	1    0    0    -1  
$EndComp
$Comp
L power:+5V #PWR0105
U 1 1 609A0915
P 750 4750
F 0 "#PWR0105" H 750 4600 50  0001 C CNN
F 1 "+5V" H 765 4923 50  0000 C CNN
F 2 "" H 750 4750 50  0001 C CNN
F 3 "" H 750 4750 50  0001 C CNN
	1    750  4750
	1    0    0    -1  
$EndComp
Wire Notes Line
	500  500  500  8000
Wire Notes Line
	500  500  10500 500 
Connection ~ 3600 4100
Connection ~ 5300 1100
Wire Bus Line
	5300 1100 7250 1100
Wire Bus Line
	3600 4100 5400 4100
Wire Wire Line
	1050 5050 1050 5900
Wire Wire Line
	1050 5900 1250 5900
Wire Wire Line
	1850 7000 2000 7000
Wire Wire Line
	1850 5800 1950 5800
Text Notes 2400 5050 2    50   ~ 0
3.6864MHz
Text Notes 2400 5250 2    50   ~ 0
115.2KHz\n
$Comp
L Switch:SW_SPDT SW2
U 1 1 609D04A5
P 2550 5150
F 0 "SW2" H 2550 5150 50  0000 L CNN
F 1 "Clock Switch" H 2100 5050 50  0000 L CNN
F 2 "" H 2550 5150 50  0001 C CNN
F 3 "~" H 2550 5150 50  0001 C CNN
	1    2550 5150
	-1   0    0    1   
$EndComp
Wire Wire Line
	2350 5250 2100 5250
Text GLabel 2850 5150 2    50   Input ~ 0
CLK_SW
Wire Wire Line
	2850 5150 2750 5150
Connection ~ 1950 5800
Wire Wire Line
	1950 5050 2350 5050
Wire Wire Line
	2100 5800 2100 5250
Wire Wire Line
	2100 5800 2800 5800
Wire Wire Line
	1950 5050 1950 5800
Wire Bus Line
	5400 3450 7400 3450
Wire Bus Line
	7400 2800 7400 3450
Connection ~ 5400 3450
Wire Bus Line
	5400 3450 5400 4100
Wire Notes Line
	5500 3900 10500 3900
Wire Notes Line
	500  4400 5500 4400
Text Notes 3300 4500 0    50   ~ 0
VIA 0 - System IO
$Comp
L power:GND #PWR0126
U 1 1 61491C54
P 8250 6200
F 0 "#PWR0126" H 8250 5950 50  0001 C CNN
F 1 "GND" H 8255 6027 50  0000 C CNN
F 2 "" H 8250 6200 50  0001 C CNN
F 3 "" H 8250 6200 50  0001 C CNN
	1    8250 6200
	1    0    0    -1  
$EndComp
$Comp
L power:+5V #PWR0125
U 1 1 6149131D
P 9250 6200
F 0 "#PWR0125" H 9250 6050 50  0001 C CNN
F 1 "+5V" H 9265 6373 50  0000 C CNN
F 2 "" H 9250 6200 50  0001 C CNN
F 3 "" H 9250 6200 50  0001 C CNN
	1    9250 6200
	1    0    0    -1  
$EndComp
$Comp
L 74xx:74HC00 U1
U 5 1 6084B88A
P 8750 6200
F 0 "U1" V 8650 6100 50  0000 L CNN
F 1 "74HC00" V 8850 6050 50  0000 L CNN
F 2 "" H 8750 6200 50  0001 C CNN
F 3 "http://www.ti.com/lit/gpn/sn74hc00" H 8750 6200 50  0001 C CNN
	5    8750 6200
	0    1    1    0   
$EndComp
Wire Notes Line
	6250 6750 6250 8000
Wire Notes Line
	500  8000 6250 8000
Wire Notes Line
	7800 500  7800 6750
Wire Wire Line
	8850 4900 8850 5300
Text GLabel 9250 5100 0    50   Input ~ 0
CLK_SW
Wire Wire Line
	8850 4900 9350 4900
Wire Wire Line
	9350 5100 9250 5100
$Comp
L 74xx:74HC00 U1
U 3 1 6084AE25
P 9650 5000
F 0 "U1" H 9650 5000 50  0000 C CNN
F 1 "74HC00" H 9650 4800 50  0000 C CNN
F 2 "" H 9650 5000 50  0001 C CNN
F 3 "http://www.ti.com/lit/gpn/sn74hc00" H 9650 5000 50  0001 C CNN
	3    9650 5000
	1    0    0    -1  
$EndComp
Wire Wire Line
	8850 5300 9350 5300
Wire Notes Line
	5500 3900 5500 8000
$Comp
L wraithan-symbols:6551 U9
U 1 1 622235AE
P 6900 5350
F 0 "U9" H 6900 6000 50  0000 C CNN
F 1 "SY6551" V 6900 5150 50  0000 C CNN
F 2 "" H 6900 5350 50  0001 C CNN
F 3 "" H 6900 5350 50  0001 C CNN
	1    6900 5350
	1    0    0    -1  
$EndComp
$Comp
L power:+5V #PWR01
U 1 1 62225B77
P 6900 4250
F 0 "#PWR01" H 6900 4100 50  0001 C CNN
F 1 "+5V" H 6915 4423 50  0000 C CNN
F 2 "" H 6900 4250 50  0001 C CNN
F 3 "" H 6900 4250 50  0001 C CNN
	1    6900 4250
	1    0    0    -1  
$EndComp
$Comp
L power:GND #PWR02
U 1 1 62227274
P 6900 6450
F 0 "#PWR02" H 6900 6200 50  0001 C CNN
F 1 "GND" H 6905 6277 50  0000 C CNN
F 2 "" H 6900 6450 50  0001 C CNN
F 3 "" H 6900 6450 50  0001 C CNN
	1    6900 6450
	1    0    0    -1  
$EndComp
Entry Wire Line
	6050 5050 6150 5150
Entry Wire Line
	6050 4950 6150 5050
Entry Wire Line
	6050 4850 6150 4950
Entry Wire Line
	6050 4750 6150 4850
Entry Wire Line
	6050 4650 6150 4750
Entry Wire Line
	6050 4550 6150 4650
Entry Wire Line
	6050 4450 6150 4550
Entry Wire Line
	6050 4350 6150 4450
Text Label 6150 5150 0    50   ~ 0
CPU_D7
Text Label 6150 5050 0    50   ~ 0
CPU_D6
Text Label 6150 4950 0    50   ~ 0
CPU_D5
Text Label 6150 4850 0    50   ~ 0
CPU_D4
Text Label 6150 4750 0    50   ~ 0
CPU_D3
Text Label 6150 4650 0    50   ~ 0
CPU_D2
Text Label 6150 4550 0    50   ~ 0
CPU_D1
Text Label 6150 4450 0    50   ~ 0
CPU_D0
Wire Wire Line
	6450 5150 6150 5150
Wire Wire Line
	6150 5050 6450 5050
Wire Wire Line
	6450 4950 6150 4950
Wire Wire Line
	6150 4850 6450 4850
Wire Wire Line
	6450 4750 6150 4750
Wire Wire Line
	6150 4650 6450 4650
Wire Wire Line
	6450 4550 6150 4550
Wire Wire Line
	6150 4450 6450 4450
Text GLabel 6050 4350 0    50   Input ~ 0
CPU_DATA
Text GLabel 6000 5600 0    50   Input ~ 0
IO_CS
Text GLabel 3600 7100 3    50   Input ~ 0
CPU_ADDRESS
Text GLabel 4000 6500 0    50   Input ~ 0
CPU_RW
Entry Wire Line
	3700 6300 3600 6400
Entry Wire Line
	3600 7100 3700 7000
Entry Wire Line
	3600 7000 3700 6900
Entry Wire Line
	3700 6800 3600 6900
Entry Wire Line
	3700 6700 3600 6800
Wire Wire Line
	6200 5850 6450 5850
Wire Wire Line
	6200 5750 6450 5750
Text Label 6450 5750 2    50   ~ 0
CPU_A0
Text Label 6450 5850 2    50   ~ 0
CPU_A1
Text GLabel 6100 5950 0    50   Input ~ 0
CPU_ADDRESS
Entry Wire Line
	6200 5850 6100 5950
Entry Wire Line
	6200 5750 6100 5850
Text Label 6450 5550 2    50   ~ 0
CPU_A12
Wire Wire Line
	6450 5550 6200 5550
Wire Wire Line
	6450 5650 6450 5600
Wire Wire Line
	6450 5600 6000 5600
Entry Wire Line
	6100 5650 6200 5550
Wire Wire Line
	6450 5450 6100 5450
Text GLabel 6100 5450 0    50   Input ~ 0
CPU_RW
Wire Wire Line
	6350 5350 6450 5350
Text GLabel 6350 5350 0    50   Input ~ 0
CLK_SW
NoConn ~ 6450 6250
Wire Wire Line
	2000 7000 2000 7500
Wire Wire Line
	2000 7500 2800 7500
Connection ~ 2000 7000
Wire Wire Line
	2000 7000 2400 7000
Text GLabel 2800 7500 2    50   Input ~ 0
CLK_UART
Text GLabel 6100 6250 0    50   Input ~ 0
CLK_UART
Wire Wire Line
	6400 6150 6450 6150
Wire Wire Line
	6400 6250 6400 6150
Wire Wire Line
	6400 6250 6100 6250
NoConn ~ 7350 4600
NoConn ~ 7350 4700
NoConn ~ 7350 4800
NoConn ~ 7350 4900
NoConn ~ 7350 5350
NoConn ~ 7350 5450
NoConn ~ 7350 5750
NoConn ~ 7350 5850
Text GLabel 6100 6150 0    50   Input ~ 0
CPU_IRQ
Text GLabel 6100 6050 0    50   Input ~ 0
CPU_RES
Wire Wire Line
	6100 6050 6200 6050
Wire Wire Line
	6200 6050 6200 5950
Wire Wire Line
	6200 5950 6450 5950
Wire Wire Line
	6300 6150 6300 6050
Wire Wire Line
	6300 6050 6450 6050
Wire Wire Line
	6100 6150 6300 6150
Wire Notes Line
	10500 500  10500 6750
Wire Notes Line
	6250 6750 10500 6750
Text Notes 5550 4000 0    50   ~ 0
ACIA 0 - Computer UART Connection
Wire Bus Line
	8050 4050 9100 4050
Wire Bus Line
	2950 4100 2950 4250
Wire Bus Line
	6100 5650 6100 5950
Wire Bus Line
	3600 6400 3600 7100
Wire Bus Line
	3700 4600 3700 5300
Wire Bus Line
	6050 4350 6050 5050
Wire Bus Line
	10250 900  10250 2000
Wire Bus Line
	8400 2700 8400 3650
Wire Bus Line
	10250 2700 10250 3650
Wire Bus Line
	2950 1100 2950 2250
Wire Bus Line
	5300 1100 5300 2200
Wire Bus Line
	7250 1100 7250 2200
Wire Bus Line
	5400 1700 5400 3450
Wire Bus Line
	3600 1700 3600 4100
Wire Bus Line
	2950 2650 2950 4100
$EndSCHEMATC
